<?xml version="1.0" encoding="UTF-8" standalone="no"?>
<!-- Created with Inkscape (http://www.inkscape.org/) -->

<svg
   xmlns:dc="http://purl.org/dc/elements/1.1/"
   xmlns:cc="http://creativecommons.org/ns#"
   xmlns:rdf="http://www.w3.org/1999/02/22-rdf-syntax-ns#"
   xmlns:svg="http://www.w3.org/2000/svg"
   xmlns="http://www.w3.org/2000/svg"
   xmlns:sodipodi="http://sodipodi.sourceforge.net/DTD/sodipodi-0.dtd"
   xmlns:inkscape="http://www.inkscape.org/namespaces/inkscape"
   width="81.251907mm"
   height="67.833748mm"
   viewBox="0 0 81.251907 67.833748"
   version="1.1"
   id="svg8"
   inkscape:version="0.92.3 (2405546, 2018-03-11)"
   sodipodi:docname="lkcamp.svg"
   inkscape:export-filename="/home/pirate/Pictures/lkcamp.png"
   inkscape:export-xdpi="97.099998"
   inkscape:export-ydpi="97.099998"
   enable-background="new">
  <defs
     id="defs2" />
  <sodipodi:namedview
     id="base"
     pagecolor="#ffffff"
     bordercolor="#666666"
     borderopacity="1.0"
     inkscape:pageopacity="0.0"
     inkscape:pageshadow="2"
     inkscape:zoom="2.8534287"
     inkscape:cx="161.65666"
     inkscape:cy="122.34352"
     inkscape:document-units="mm"
     inkscape:current-layer="layer2"
     showgrid="false"
     inkscape:window-width="2560"
     inkscape:window-height="1009"
     inkscape:window-x="0"
     inkscape:window-y="34"
     inkscape:window-maximized="1" />
  <metadata
     id="metadata5">
    <rdf:RDF>
      <cc:Work
         rdf:about="">
        <dc:format>image/svg+xml</dc:format>
        <dc:type
           rdf:resource="http://purl.org/dc/dcmitype/StillImage" />
        <dc:title />
      </cc:Work>
    </rdf:RDF>
  </metadata>
  <g
     inkscape:label="Layer 1"
     inkscape:groupmode="layer"
     id="layer1"
     style="display:inline"
     transform="translate(-23.252023,-27.320475)"
     sodipodi:insensitive="true">
    <circle
       style="fill:#060009;fill-opacity:0.97119344;stroke:#000000;stroke-width:0.26499999;stroke-miterlimit:4;stroke-dasharray:none;stroke-opacity:1"
       id="path815"
       r="30.735994"
       cy="61.068638"
       cx="63.644882" />
  </g>
  <g
     inkscape:groupmode="layer"
     id="layer4"
     inkscape:label="Layer 4">
    <path
       sodipodi:type="star"
       style="display:inline;fill:#ffffff;fill-opacity:1;stroke:#ffffff;stroke-width:1.00369048;stroke-linejoin:round;stroke-miterlimit:4;stroke-dasharray:none;stroke-dashoffset:2.64753008;stroke-opacity:1;paint-order:fill markers stroke"
       id="path919"
       sodipodi:sides="3"
       sodipodi:cx="63.5"
       sodipodi:cy="74.466515"
       sodipodi:r1="17.29241"
       sodipodi:r2="8.6462049"
       sodipodi:arg1="-1.5707963"
       sodipodi:arg2="-0.52359878"
       inkscape:flatsided="false"
       inkscape:rounded="0"
       inkscape:randomized="0"
       d="m 63.5,57.174105 7.487833,12.969307 7.487833,12.969308 -14.975666,0 -14.975666,-10e-7 7.487833,-12.969307 z"
       inkscape:transform-center-y="-5.4695658"
       transform="matrix(1.2654654,0,0,1.2651953,-40.005643,-47.234713)"
       inkscape:transform-center-x="4.5579815e-06" />
  </g>
  <g
     inkscape:groupmode="layer"
     id="layer2"
     inkscape:label="Layer 2"
     style="display:inline"
     transform="translate(-23.252023,-27.320475)">
    <path
       style="display:inline;fill:#ffffff;fill-opacity:1;stroke:#000000;stroke-width:0.40000001;stroke-miterlimit:4;stroke-dasharray:none;stroke-opacity:1"
       id="path815-6-5"
       sodipodi:type="arc"
       sodipodi:cx="-96.154709"
       sodipodi:cy="4.6693888"
       sodipodi:rx="30.735998"
       sodipodi:ry="30.735998"
       sodipodi:start="0.90603615"
       sodipodi:end="2.2348177"
       sodipodi:open="true"
       d="m -77.194582,28.860609 a 30.735998,30.735998 0 0 1 -37.902378,0.014"
       transform="rotate(-120)" />
    <path
       style="display:inline;fill:#ffffff;fill-opacity:1;stroke:#000000;stroke-width:0.40000001;stroke-miterlimit:4;stroke-dasharray:none;stroke-opacity:1"
       id="path815-6-3"
       sodipodi:type="arc"
       sodipodi:cx="32.545521"
       sodipodi:cy="-105.488"
       sodipodi:rx="30.735998"
       sodipodi:ry="30.735998"
       sodipodi:start="0.90603615"
       sodipodi:end="2.2348177"
       sodipodi:open="true"
       d="m 51.505648,-81.296778 a 30.735998,30.735998 0 0 1 -37.902377,0.014"
       transform="rotate(120)" />
    <path
       style="display:inline;fill:#ffffff;fill-opacity:1;stroke:#000000;stroke-width:0.28;stroke-miterlimit:4;stroke-dasharray:none;stroke-opacity:1"
       id="path815-6"
       sodipodi:type="arc"
       sodipodi:cx="63.594498"
       sodipodi:cy="61.048363"
       sodipodi:rx="30.735996"
       sodipodi:ry="30.735996"
       sodipodi:start="0.90603615"
       sodipodi:end="2.2348177"
       sodipodi:open="true"
       d="m 82.554624,85.239582 a 30.735996,30.735996 0 0 1 -37.902375,0.014" />
  </g>
  <g
     inkscape:groupmode="layer"
     id="layer3"
     inkscape:label="Layer 3"
     transform="translate(-23.252023,-27.320475)">
    <path
       style="display:inline;fill:#ffffff;fill-opacity:1;stroke:#000000;stroke-width:0.17;stroke-linejoin:bevel;stroke-miterlimit:4;stroke-dasharray:none;stroke-dashoffset:12.66141701;stroke-opacity:1"
       id="path944-5"
       sodipodi:type="arc"
       sodipodi:cx="-72.005821"
       sodipodi:cy="-53.977276"
       sodipodi:rx="4.6774554"
       sodipodi:ry="15.638765"
       sodipodi:start="0.90603532"
       sodipodi:end="2.2348243"
       sodipodi:open="true"
       d="m -69.120434,-41.668563 a 4.6774554,15.638765 0 0 1 -5.768075,0.0071"
       transform="scale(-1)" />
    <path
       style="display:inline;fill:#ffffff;fill-opacity:1;stroke:#000000;stroke-width:0.17;stroke-linejoin:bevel;stroke-miterlimit:4;stroke-dasharray:none;stroke-dashoffset:12.66141701;stroke-opacity:1"
       id="path944"
       sodipodi:type="arc"
       sodipodi:cx="-55.045498"
       sodipodi:cy="-53.851498"
       sodipodi:rx="4.6774554"
       sodipodi:ry="15.638764"
       sodipodi:start="0.90603532"
       sodipodi:end="2.2348243"
       sodipodi:open="true"
       d="m -52.160111,-41.542786 a 4.6774554,15.638764 0 0 1 -5.768074,0.0071"
       transform="scale(-1)" />
    <path
       sodipodi:type="star"
       style="display:inline;fill:#fffd53;fill-opacity:1;stroke:#000000;stroke-width:0.17;stroke-linejoin:bevel;stroke-miterlimit:4;stroke-dasharray:none;stroke-dashoffset:12.66141701;stroke-opacity:1"
       id="path963"
       sodipodi:sides="3"
       sodipodi:cx="63.685806"
       sodipodi:cy="50.428349"
       sodipodi:r1="4.2616711"
       sodipodi:r2="2.1308355"
       sodipodi:arg1="1.5707963"
       sodipodi:arg2="2.6179939"
       inkscape:flatsided="false"
       inkscape:rounded="0"
       inkscape:randomized="0"
       d="m 63.685806,54.69002 -1.845357,-3.196254 -1.845358,-3.196253 3.690715,0 3.690716,0 -1.845358,3.196253 z"
       inkscape:transform-center-y="1.0654173"
       transform="matrix(1.6841484,0,0,1,-43.549114,0)"
       inkscape:transform-center-x="1.7368357e-06" />
    <path
       style="display:inline;opacity:0.7;fill:#ffffff;fill-opacity:0.97119344;stroke:#a5a5a5;stroke-width:0.36500001;stroke-miterlimit:4;stroke-dasharray:2.19, 0.365;stroke-dashoffset:0;stroke-opacity:1"
       id="path815-2"
       sodipodi:type="arc"
       sodipodi:cx="-63.695724"
       sodipodi:cy="-315.4903"
       sodipodi:rx="30.735996"
       sodipodi:ry="254.11992"
       sodipodi:start="1.1063008"
       sodipodi:end="2.0355304"
       sodipodi:open="true"
       d="m -49.926864,-88.294974 a 30.735996,254.11992 0 0 1 -27.544276,-0.02716"
       transform="scale(-1)" />
    <path
       style="fill:#000000;fill-opacity:0.97119344;stroke:#ffffff;stroke-width:0.67000002;stroke-linecap:butt;stroke-linejoin:miter;stroke-miterlimit:4;stroke-dasharray:none;stroke-opacity:1;paint-order:markers stroke fill"
       id="path861"
       sodipodi:type="arc"
       sodipodi:cx="-101.0862"
       sodipodi:cy="17.992571"
       sodipodi:rx="4.6483583"
       sodipodi:ry="16.867188"
       sodipodi:start="0.11328302"
       sodipodi:end="3.1695928"
       d="m -96.467633,19.899253 a 4.6483583,16.867187 0 0 1 -4.946657,14.918437 4.6483583,16.867187 0 0 1 -4.31844,-17.297341"
       transform="rotate(-140)"
       sodipodi:open="true" />
    <path
       style="fill:#000000;fill-opacity:0.97119344;stroke:#ffffff;stroke-width:0.67000002;stroke-linecap:butt;stroke-linejoin:miter;stroke-miterlimit:4;stroke-dasharray:none;stroke-opacity:1;paint-order:markers stroke fill"
       id="path861-3"
       sodipodi:type="arc"
       sodipodi:cx="14.16375"
       sodipodi:cy="-64.252365"
       sodipodi:rx="4.6483583"
       sodipodi:ry="16.867188"
       sodipodi:start="0.07692188"
       sodipodi:end="2.9841204"
       d="m 18.798363,-62.956188 a 4.6483583,16.867187 0 0 1 -4.44745,15.557332 4.6483583,16.867187 0 0 1 -4.7780068,-14.208359"
       transform="rotate(130)"
       sodipodi:open="true" />
  </g>
</svg>
